{
  "Actor": {
    "types": [
      "character",
      "npc"
    ],
    "templates": {
      "biography": {
        "biography": ""
      },
      "attributes": {
        "attributes": {
          "charisma": {
            "species": 0,
            "initial": 2,
            "advances": 0
          },
          "agility": {
            "species": 0,
            "initial": 2,
            "advances": 0
          },
          "intuition": {
            "species": 0,
            "initial": 2,
            "advances": 0
          },
          "constitution": {
            "species": 0,
            "initial": 2,
            "advances": 0
          },
          "mystic": {
            "species": 0,
            "initial": 2,
            "advances": 0
          },
          "strength": {
            "species": 0,
            "initial": 2,
            "advances": 0
          },
          "mind": {
            "species": 0,
            "initial": 2,
            "advances": 0
          },
          "willpower": {
            "species": 0,
            "initial": 2,
            "advances": 0
          }
        }
      },
      "skills": {
        "skills": {
          "melee": {
            "points": 0,
            "value": 0
          },
          "slashing": {
            "points": 0,
            "value": 0
          },
          "chains": {
            "points": 0,
            "value": 0
          },
          "blades": {
            "points": 0,
            "value": 0
          },
          "longrange": {
            "points": 0,
            "value": 0
          },
          "staffs": {
            "points": 0,
            "value": 0
          },
          "throwing": {
            "points": 0,
            "value": 0
          },
          "acrobatics": {
            "points": 0,
            "value": 0
          },
          "alchemy": {
            "points": 0,
            "value": 0
          },
          "leadership": {
            "points": 0,
            "value": 0
          },
          "arcanelore": {
            "points": 0,
            "value": 0
          },
          "athletics": {
            "points": 0,
            "value": 0
          },
          "performance": {
            "points": 0,
            "value": 0
          },
          "diplomacy": {
            "points": 0,
            "value": 0
          },
          "clscraft": {
            "points": 0,
            "value": 0
          },
          "empathy": {
            "points": 0,
            "value": 0
          },
          "determination": {
            "points": 0,
            "value": 0
          },
          "dexterity": {
            "points": 0,
            "value": 0
          },
          "history": {
            "points": 0,
            "value": 0
          },
          "craftmanship": {
            "points": 0,
            "value": 0
          },
          "heal": {
            "points": 0,
            "value": 0
          },
          "stealth": {
            "points": 0,
            "value": 0
          },
          "hunting": {
            "points": 0,
            "value": 0
          },
          "countrylore": {
            "points": 0,
            "value": 0
          },
          "nature": {
            "points": 0,
            "value": 0
          },
          "eloquence": {
            "points": 0,
            "value": 0
          },
          "locksntraps": {
            "points": 0,
            "value": 0
          },
          "swim": {
            "points": 0,
            "value": 0
          },
          "seafaring": {
            "points": 0,
            "value": 0
          },
          "streetlore": {
            "points": 0,
            "value": 0
          },
          "animals": {
            "points": 0,
            "value": 0
          },
          "survival": {
            "points": 0,
            "value": 0
          },
          "perception": {
            "points": 0,
            "value": 0
          },
          "endurance": {
            "points": 0,
            "value": 0
          },
          "antimagic": {
            "points": 0,
            "value": 0
          },
          "controlmagic": {
            "points": 0,
            "value": 0
          },
          "motionmagic": {
            "points": 0,
            "value": 0
          },
          "insightmagic": {
            "points": 0,
            "value": 0
          },
          "stonemagic": {
            "points": 0,
            "value": 0
          },
          "firemagic": {
            "points": 0,
            "value": 0
          },
          "healmagic": {
            "points": 0,
            "value": 0
          },
          "illusionmagic": {
            "points": 0,
            "value": 0
          },
          "combatmagic": {
            "points": 0,
            "value": 0
          },
          "lightmagic": {
            "points": 0,
            "value": 0
          },
          "naturemagic": {
            "points": 0,
            "value": 0
          },
          "shadowmagic": {
            "points": 0,
            "value": 0
          },
          "fatemagic": {
            "points": 0,
            "value": 0
          },
          "protectionmagic": {
            "points": 0,
            "value": 0
          },
          "enhancemagic": {
            "points": 0,
            "value": 0
          },
          "deathmagic": {
            "points": 0,
            "value": 0
          },
          "transformationmagic": {
            "points": 0
          },
          "watermagic": {
            "points": 0
          },
          "windmagic": {
            "points": 0
          }
        }
      },
      "health": {
        "health": {
          "consumed": {
            "value": 0
          },
          "exhausted": {
            "value": 0
          },
          "channeled": {
            "entries": []
          }
        }
      },
      "focus": {
        "focus": {
          "consumed": {
            "value": 0
          },
          "exhausted": {
            "value": 0
          },
          "channeled": {
            "entries": []
          }
        }
      },
      "currency": {
        "currency": {
          "S": 0,
          "L": 0,
          "T": 0
        }
      }
    },
    "character": {
      "templates": [
        "attributes",
        "skills",
        "biography",
        "health",
        "focus",
        "currency"
      ],
      "splinterpoints": {
        "value": 3,
        "max": 3
      },
      "experience": {
        "heroLevel": 1,
        "free": 0,
        "spent": 0,
        "nextLevelValue": 100
      },
      "species": {
        "value": "",
        "size": 5
      },
      "sex": "",
      "ancestry": "",
      "culture": "",
      "education": ""
    },
    "npc": {
      "templates": [
        "attributes",
        "skills",
        "biography",
        "health",
        "focus",
        "currency"
      ],
      "derivedAttributes": {
        "size": {
          "value": 0
        },
        "speed": {
          "value": 0
        },
        "initiative": {
          "value": 0
        },
        "healthpoints": {
          "value": 0
        },
        "focuspoints": {
          "value": 0
        },
        "defense": {
          "value": 0
        },
        "bodyresist": {
          "value": 0
        },
        "mindresist": {
          "value": 0
        }
      },
      "sex": "",
      "type": "",
      "level": "",
      "damageReduction": {
        "value": 0
      },
      "attacks": []
    }
  },
  "Item": {
    "types": [
      "weapon",
      "projectile",
      "equipment",
      "shield",
      "armor",
      "spell",
      "strength",
      "weakness",
      "mastery",
      "species",
      "culture",
      "ancestry",
      "education",
      "resource",
      "npcfeature",
      "moonsign",
      "language",
      "culturelore",
      "statuseffect",
      "spelleffect"
    ],
    "templates": {
      "description": {
        "description": "",
        "source": ""
      },
      "physicalProperties": {
        "quantity": 1,
        "price": "",
        "weight": 0,
        "hardness": 0,
        "complexity": "",
        "availability": "",
        "quality": 0,
        "durability": 0,
        "damageLevel": 0,
        "sufferedDamage": 0
      },
      "defense": {
        "tickMalus": 0,
        "defenseBonus": 0,
        "handicap": 0
      },
      "modifier": {
        "modifier": ""
      }
    },
    "weapon": {
      "templates": [
        "description",
        "physicalProperties",
        "modifier"
      ],
      "damage": "",
      "range": 0,
      "weaponSpeed": 0,
      "skill": "",
      "skillMod": 0,
      "features": "",
      "attribute1": "",
      "attribute2": "",
      "minAttributes": "",
      "prepared": false,
      "equipped": false,
      "secondaryAttack": {
        "skill": "none",
        "skillMod": 0,
        "attribute1": "",
        "attribute2": "",
        "damage": "",
        "range": 0,
        "weaponSpeed": 0,
        "minAttributes": "",
        "features": ""
      }
    },
    "projectile": {
      "templates": [
        "description",
        "physicalProperties"
      ],
      "skill": "craftmanship",
      "subSkill": "",
      "weapon": "",
      "features": []
    },
    "equipment": {
      "templates": [
        "description",
        "physicalProperties",
        "modifier"
      ]
    },
    "shield": {
      "templates": [
        "description",
        "physicalProperties",
        "defense",
        "modifier"
      ],
      "skill": "",
      "features": [],
      "minAttributes": "",
      "equipped": false
    },
    "armor": {
      "templates": [
        "description",
        "physicalProperties",
        "defense",
        "modifier"
      ],
      "minStr": 0,
      "damageReduction": 0,
      "features": [],
      "equipped": false
    },
    "spell": {
      "templates": [
        "description"
      ],
      "availableIn": "",
      "skill": "",
      "skillLevel": 0,
      "spellType": "",
      "costs": "",
      "difficulty": "",
      "damage": "",
      "range": "",
      "castDuration": "",
      "effectDuration": "",
      "effectArea": "",
      "enhancementDescription": "",
      "enhancementCosts": "",
      "features": "",
      "degreeOfSuccessOptions": {
        "castDuration": false,
        "consumedFocus": false,
        "exhaustedFocus": false,
        "channelizedFocus": false,
        "effectDuration": false,
        "damage": false,
        "range": false,
        "effectArea": false
      }
    },
    "statuseffect": {
      "templates": [
        "description",
        "modifier"
      ],
      "level": 1
    },
    "spelleffect": {
      "templates": [
        "description",
        "modifier"
      ],
      "active": true
    },
    "mastery": {
      "templates": [
        "description",
        "modifier"
      ],
      "availableIn": "",
      "skill": "",
      "isGrandmaster": 0,
      "level": 1
    },
    "strength": {
      "templates": [
        "description",
        "modifier"
      ],
      "origin": "",
      "level": 1,
      "quantity": 1,
      "multiSelectable": false,
      "onCreationOnly": false
    },
    "species": {
      "templates": [
        "description"
      ],
      "size": 5,
      "attributeMod": "",
      "strengths": ""
    },
    "culture": {
      "templates": [
        "description"
      ],
      "typicalSpecies": "",
      "typicalAncestries": "",
      "cultureLore": "",
      "language": "",
      "strength": "",
      "skills": "",
      "mastery": ""
    },
    "ancestry": {
      "templates": [
        "description"
      ],
      "resources": "",
      "skills": ""
    },
    "education": {
      "templates": [
        "description"
      ],
      "strength": "",
      "resources": "",
      "skills": "",
      "masteries": ""
    },
    "weakness": {
      "templates": [
        "description"
      ]
    },
    "resource": {
      "templates": [
        "description"
      ],
      "value": 1
    },
    "npcfeature": {
      "templates": [
        "description",
        "modifier"
      ]
    },
    "moonsign": {
      "templates": [
        "description"
      ],
      "enhancement": "",
      "secretGift": ""
    },
    "language": {
      "templates": [
        "description"
      ]
    },
    "culturelore": {
      "templates": [
        "description"
      ]
    }
  }
}